[
  {
    "TYPE": 1,
    "appWidgetId": 0,
    "tapX": 50,
    "tapY": 50,
    "scaleFactor": 100
  },
  {
    "TYPE": 1,
    "appWidgetId": 0,
    "tapX": 50,
    "tapY": 50,
    "scaleFactor": 100
  },
  {
    "TYPE": 1,
    "appWidgetId": 0,
    "tapX": 50,
    "tapY": 50,
    "scaleFactor": 100
  }
]